"Country or Area","Year","Value","Value Footnotes"
"Africa +","2007","1382310.00000","A "
"Asia +","2007","9427243.00000","A "
"Australia and New Zealand +","2007","117215.00000","A "
"Europe +","2007","1941886.00000","A "
"Northern America +","2007","2215082.00000","A "
"South America +","2007","1951968.00000","A "

"fnSeqID","Footnote"
"A ","May include official, semi-official or estimated data"
