"Country or Area","Year","Value","Value Footnotes"
"Africa +","2007","279721562.00000","A "
"Asia +","2007","455740170.00000","A "
"Australia and New Zealand +","2007","124171660.00000","A "
"Europe +","2007","136474978.00000","A "
"Northern America +","2007","7063838.00000","A "
"South America +","2007","72829949.00000","A "

"fnSeqID","Footnote"
"A ","May include official, semi-official or estimated data"
